{
  "We are soon on Kickstarter! Let us your email.": "The project will be **available very soon on Kickstarter**! Be the first to get your **Recalbox RGB Dual** by subscribing to the newletter!",
  "Tell me when it's on kickstarter!": "Let me know when it's available!",
  "Soon on Kickstarter": "Soon on Kickstarter",
  "Now on Kickstarter": "Now on Kickstarter",
  "days to go": "days to go",
  "Bring your CRT screens and TV back to life and play all your childhood games with RECALBOX RGB Dual!": "Bring your CRT screens and TV sets back to life and play all your childhood games with RECALBOX RGB Dual!",
  "Back this project on Kickstarter": "Back this project on Kickstarter",
  "Story": "Story",
  "Recalbox Description": "We are Recalbox, a free solution that turns your **Raspberry Pi** nano computer into a retrogaming console supporting over 120 consoles and computosaurs (a.k.a old computers), and thousands of arcade games. \nAs retrogamers, you know how transcendent it is to feel the nostalgia that takes hold of us when we replay all the games that rocked our childhood.\n\nPlaying with a PS4 or 8Bitdo controller on the living room OLED TV already allows us to rediscover and share the pleasure of retro gaming, but some of us have an insatiable thirst that compels us to go further and further in search of the **closest possible experience to the original**.\n\nIn this endless search, **the display of the game** is probably the most important point.\n\nAnd what could be closer to the original experience than playing on your old **CRT TVs** (you know, with the SCART socket)?\n",
  "1 - Objective": "1 - The purpose",
  "1 - Objective details": "The **Recalbox RGB Dual** project aims to allow everyone to play their favourite games on CRT TVs... **WITHOUT ANY CONFIGURATION!**\n\nMany of you still have a CRT TV in the attic, and if you don't, CRTs can be found very easily, at a very affordable price, or even for free (by rummaging through your relatives' garages...)\n\nOur goal is to get as close as possible to the original image and game experience on your consoles and arcade games. Let's keep it short and simple, **the result exceeds all our expectations**...\n",
  "2 - What is Recalbox RGB Dual?": "2 - Recalbox RGB Dual, what is it?",
  "It's a hat": "Recalbox RGB Dual is a small card (called H.A.T.) that clips onto your **Raspberry Pi 4, 400, 3 or Zero2** to add a **Scart** output and a **VGA output**.\nIf you already have an enclosure, we offer optional extensions that allow you to use Recalbox RGB Dual without clipping it onto the Raspberry Pi.",
  "2 - What is Recalbox RGB Dual details": "These two new **Scart** and **VGA** outputs allow you to connect your Raspberry Pi to any CRT TV or screen.\nFrom this SCART and VGA socket comes an RGB signal, considered the cleanest analog signal, compatible with all scart and VGA** CRT screens.\n\n**Pixel perfect** is now within reach...\nHaving the necessary hardware to play on a CRT is crucial, but at Recalbox the most important value is simplicity.\nThat's why Recalbox version **8.0** has been 100% optimised to support the Recalbox RGB Dual natively, **without any configuration required!**\nIt's very simple: just clip the **Recalbox RGB Dual** on your Raspberry PI, connect your scart plug, and let's play!",
  "Features": "Features",
  "Feature config chip title": "**- Configuration chip**",
  "Feature config chip description": "The configuration chip (eeprom) allows your Recalbox to detect if a Recalbox RGB Dual is connected and to **automatically configure the system**. This is 100% Plug and Play.",
  "Feature pixel factory title": "**- The Pixel Factory**",
  "Feature pixel factory description": "We have used the most efficient video signal processing technique to produce a razor-sharp image that is compatible with all television sets.",
  "Feature boom box title": "**- The Boom Box**",
  "Feature boom box description": "Both audio channels are filtered to smooth the sound signal, and ensure the best possible sound quality. Connoisseurs will recognise the filters of a class D amp.",
  "Feature power up title": "**- Power up**",
  "Feature power up description": "The 12V signal produced by the “Power up” **automatically selects the correct channel on the TV** when you switch on Recalbox.",
  "Feature automatic timing selection title": "**- Automatic selection of the original display mode**",
  "Feature automatic timing selection description": "The database embedded in Recalbox 8.0 contains all the information so that for each game launched, you can automatically enjoy its original display mode.\nFor each console and each game:\n- Resolution is 100% identical to the original resolution.\n- Image refresh rate is 100% identical to the original refresh rate.",
  "Feature configuration screen title": "**- Configuration screen**",
  "Feature configuration screen description": "We have added a configuration menu that allows you to choose options such as the menu display mode, or to adjust the geometry of your screen.",
  "Feature mode 50Hz title": "**- 50Hz Mode**",
  "Feature mode 50Hz description": "For some CRTs that are not NTSC compatible (60Hz), it is possible to force PAL mode (50Hz) for all games.",
  "Feature 240p theme title": "**- 240p Theme**",
  "Feature 240p theme description": "The Recalbox theme has been optimised for CRT displays (240p and 480i). It optimises the space and allows for a more pleasant reading of the texts, even in such small resolutions.",
  "Feature power users title": "**- Overriding for power users**",
  "Feature power users description": "Recalbox RGB Dual is fully Plug and Play, but experts may fully override the display modes for every single game or console.\n",
  "Feature 240p test suite title": "**- 240p Test Suite**",
  "Feature 240p test suite description": "And if you're the picky type... We have integrated the 240P TEST SUITE system into Recalbox 8.0.\nThis allows you to calibrate your screen to the nearest pixel for each console!\n\nAnother example?",
  "3 - The case": "3 - The case",
  "3 - The case part1": "We have designed a case that allows you to place your Rasbperry Pi 3 or 4 and the Recalbox RGB Dual.\nAvailable in limited quantities, it is available as an option when you purchase a Recalbox RGB Dual in the store.\n",
  "3 - The case part2": "At the end of the campaign, we will publish the 3D sources that will allow you to print the case yourself or have it printed in a fablab!",
  "4 - Development": "4 - Development",
  "4 - Development part1": "The first prototype, soldered by hand, allowed us to validate the double Scart + VGA output and the feasibility of the project.\nIt looked like this:",
  "4 - Development part2": "Since then, we've come a long way.  4 prototype models, hundreds of hours of research and development, and here we are: a zero-configuration experience, signals that are as close as possible to the originals, and an image that has NOTHING to envy from the original consoles...\n\nThis is the “laboratory\" where we check and adjust:\nfrequencies for each console\nclarity of the signals\nquality of each prototype",
  "5 - The RGB signal, 240p, 15KHz and all the rest title": "5 - The RGB signal, 240p, 15KHz and all the rest",
  "5 - The RGB signal, 240p, 15KHz and all the rest part1": "**Recalbox RGB Dual** takes its name from the type of signal generated and sent to your TV. This signal is called **R.G.B.** (for Red Green Blue). At the time, this signal was considered **the best analogue signal**, and it still is today!\nRemember, when you bought the Playstation, it came with the yellow, red, white composite coaxial cable.\nThis cable was far from honouring the console's graphics... That's why there were RGB cables (Scart) that were sold at a high price and that you absolutely had to buy in order to enjoy a quality image.\n",
  "5 - The RGB signal, 240p, 15KHz and all the rest part2": "This is the same RGB signal that is generated by Recalbox RGB Dual!\n\nWhen it comes to CRT displays, two terms often stand out: \n- **240p**, which means \"a display of 240 active lines on the screen in progressive mode\". This is the most commonly used display mode. There are dozens of other modes that are compatible with TVs, such as 224p for example. It is often noted with its refresh rate: 240@60p represents the 240p mode at 60 Hz\n- The **15Khz**, which represents the horizontal refresh rate, corresponds to the number of horizontal lines drawn per second.  To calculate this frequency for 240@60p, you just have to multiply the number of lines to be displayed (240 + the lines we don't mention...) by the display frequency (60Hz)\n- The **31Khz** is twice the 15KHz \uD83D\uDE00.  The resolution of the games is 640x480 pixels with a progressive display, at 60 frames per second. This mode is only available for some consoles, arcade games and PC.",
  "6 - Preparing for the future": "6 - Preparing for the future",
  "6 - Preparing for the future description": "Recalbox RGB Dual has a **VGA** port, which allows us to display 480p (640x480p) compatible games such as Dreamcast, Naomi, Atomiswave, or some PC games.\nThis **31KHz** mode support is under development in Recalbox, however Recalbox RGB Dual is already ready to receive this future update.\n",
  "7 - Rewards": "7 - Rewards",
  "7 - Rewards part1": "Whatever your budget, all our Recalbox RGB Duals have the same features and produce the same image quality.\nWe offer very limited editions for users who wish to further support the project.",
  "7 - Rewards green": "**Recalbox RGB Dual Kickstarter Edition Early Adopters (Green)**",
  "7 - Rewards green desc": "Thank you! The launch offer is only available during the Kickstarter campaign.",
  "7 - Rewards white": "**Recalbox RGB Dual Kickstarter Limited Edition (White)**",
  "7 - Rewards white desc": "Thank you! Get a Recalbox RGB Dual Kickstarter Limited Edition (White/Blanc). Produced only for the Kickstarter campaing.",
  "7 - Rewards white + case": "**Recalbox RGB Dual Kickstarter Edition Limitée(Blanc) + Le boitier Raspberry Pi 4 RGB (en impression 3D)!**",
  "7 - Rewards white + case desc": "Thank you! Get a Recalbox RGB Dual Kickstarter Limited Edition (White/Blanc) AND the 3D Printed RGB Case!",
  "7 - Rewards blue": "**Recalbox RGB Dual Prototype Edition (Blue)**",
  "7 - Rewards blue desc": "Thank you! Get a Recalbox RGB Dual Prototype Edition (Blue) (100% operational) in a ultra limited edition of 20 items, AND a Recalbox RGB Dual Kickstarter Edition (White)",
  "7 - Rewards investor": "**Recalbox RGB Dual UNIQUE Edition (Black)**",
  "7 - Rewards investor desc": "Waou! THANK YOU!\n- Get the Recalbox RGB Dual Unique Edition (Black) labelled 1/1 with our greetings on the board!\n- Get your nickname on all Recalbox RGB Dual Kickstarter Limited Edition !\n- Get a letter of appreciation signed by digitalLumberjack and bkg2k\n- Plus a complete Recalbox RGB Dual pack (1x Recalbox RGB Dual Prototype Edition (Blue) , 1x Recalbox RGB Dual Kickstarter Edition (White), 1x RGB Case, 3 Scart Cables, 3 VGA cables)",
  "F.A.Q.": "F.A.Q.",
  "F.A.Q. list" : "- **What do I need to enjoy my Recalbox RGB Dual?**\nA complete Raspberry Pi kit (Rpi4, Rpi3,RPi 400 or RPi Zero 2 with soldered gpio headers) with power supply, SD card and controller, Recalbox installed on the SD card, and a CRT TV \uD83D\uDE00\n- **Can I connect both SCART and VGA outputs at the same time?**\nNo, this is not possible, the current limitation does not allow you to send the signal to more than one device. Moreover, the signal generated is only compatible with one or the other screen.\n- **Is it compatible with all CRT screens?**\nYes, the Pixel Factory generates a very clean sync signal to ensure compatibility with the maximum number of CRTs.\n- **My Recalbox is already in a case, what can I do?**\nAs an option, you can add a GPIO extension to your order to move the Recalbox RGB Dual outside your case.\n- **Are all the consoles and computers available on Recalbox compatible?**\nMost are already compatible (all arcade games and over 70 systems), and future updates will add more.\n- **Is Recalbox RGB Dual compatible with other distributions?**\nWe leave it up to other retrogaming distributions to make their systems compatible with Recalbox RGB Dual.\n- **What about vertical games?**\nVertical games are supported on your CRT TVs.\n- **What about vertical displays?**\nVertical screen compatibility will be implemented in a future version of Recalbox, but don't worry, Recalbox RGB Dual is already ready to support this upgrade.\n- **Which Raspberry Pi's are compatible?**\nThe Raspberry Pi 4, Raspberry Pi 3, Raspberry Pi 400 and Raspberry Pi Zero2 are compatible. The Raspberry Pi 400 requires a GPIO extension (available as an option when ordering)\n- **How big is the Recalbox RGB Dual?**\n56mmx65mm, it clips perfectly onto your Raspberry Pi\n- **What cables do I need?**\nA SCART cable which is available as an option when you order.\nA GPIO extension cable if you already have a box for your Raspberry Pi.\n- **Is there a power supply to add?**\nNo\n- **Does it stay out in the open like this?**\nIf you are a Maker, we distribute free STL files to print your case in 3d on your printer or in a FabLab near you !\n",
  "Credits": "Credits",
  "Credits details": "All the game photos on CRT were taken by @CRTPixel and we thank him warmly for giving us permission to use them for our campaign!\nThanks to the Recalbox community for helping us on this project, and especially to:\n@toniosj @Atomik @CommanderOcto @emandhal @PierreC0905 @Pit64 @cpasjuste and every other one.",
  "Recalbox RGB Dual prototype footage": "Recalbox RGB Dual prototype footage",
  "They talk about us!": "They talk about us!",
  "They like us!": "They like us!",
  "Want to know when Recalbox RGB Dual will be available? Let us your email.": "Want to know when Recalbox RGB Dual will be available? Let us your email.",
  "Tell me when it's back!": "Tell me when it's back!",
  "Thank you! You will be the first to know when the Recalbox RGB Dual is back in stock!": "Thank you! You will be the first to know when the Recalbox RGB Dual is back in stock!",
  "Thank you for your support! The kickstarter campaign is a success!": "Thank you for your support! The kickstarter campaign is a success!",
  "Buy a Recalbox RGB Dual": "Buy a Recalbox RGB Dual"
}
