{
  "Discover": "Entdecken",
  "Experience": "Auswahl der Erfahrung",
  "Hardware": "Hardware",
  "Installation": "Installation",
  "DIY Step 1": "DIY - Schritt 1: Recalbox entdecken",
  "We are going to help you throught 4 steps": "Wir werden Dich durch **4 Schritte** begleiten, nach denen Du dein erstes Spiel starten kannst!",
  "Step 1: What is Recalbox?": "Schritt 1: Was ist Recalbox?",
  "It's the next gen console of retrogaming!": "Es ist die Next-Gen-Konsole des\n                  Retrogamings!",
  "Recalbox de salon": "Recalbox im Wohnzimmer",
  "hardware for tv": "* Ein Raspberry Pi 4 oder Zero 2\n* Ein Raspberry Pi 4 oder Zero 2 Gehäuse\n* Eine microSD-Karte mit mindestens 16GB Speicherplatz\n* Ein Micro-HDMI-Kabel\n* Ein USB-/Bluetooth-Controller\n* Ein offizielles Raspberry Pi 4 oder Zero 2 Netzteil\n* Optional : Ein USB-Stick zum einfachen Speichern von Spielen\n* Optional : ein USB-C-Schalter für Ihr Netzteil",
  "NEXT GEN": "NEXT-GEN",
  "Play online": "Online spielen, jederzeit speichern, zurückspulen...",
  "+120 systems": "100+ Systeme",
  "Play again to 100": "Tausende von Spielen auf hundert Systemen und mehr (erneut) spielen !",
  "DIY or Ready To Play": "DIY oder Ready To Play",
  "TV": "TV",
  "Assemble your recalbox or get a ready to play kit": "Baue deine Recalbox selbst zusammen oder kaufe ein \"Ready to Play\"-Kit.",
  "Free": "Kostenlos",
  "Recalbox is free": "Herunterladen, installieren, spielen! Recalbox ist kostenlos. ",
  "Step 2: Select your experience": "Schritt 2: Wählen deine Spielerfahrung aus",
  "What is Recalbox?": "Recalbox ist ***Die ultimative Retrogaming-Konsole***, mit der Du alle Spiele, Konsolen, und Computer deiner Kindheit wieder spielen kannst! \n\nMit Recalbox kannst Du die Spiele, die die Geschichte der Videospiele geprägt haben, ganz einfach (wieder-)entdecken und (wieder-)spielen !",
  "+100 systems": "100+ Systeme",
  "Recalbox in your living room": "Recalbox in deinem Wohnzimmer.",
  "Recalbox on your PC": "Recalbox auf deinem PC.",
  "Handheld": "Handheld",
  "Recalbox everywhere!": "Recalbox überall!",
  "Either TV, PC or handheld?": "TV, PC oder Handheld ?",
  "Step 2: Choose your experience": "Schritt 2: Wähle deine Spielerfahrung",
  "The installation": "Die Installation:",
  "Back to homepage": "Zurück zur Startseite",
  "Recalbox Shop at kubii": "Recalbox-Shop bei kubii.fr",
  "Missing anything, check kubii": "Fehlt dir noch etwas? Alle Elemente sind bei unserem Partner kubii.fr erhältlich.",
  "You will need the hardware": "Du benötigst folgende Hardware:",
  "Or do it yourself.": "Oder mache es einfach selbst.",
  "DIY Step 3 TV": "DIY - Schritt 3: Die Hardware fürs Wohnzimmer",
  "Living room it will be!": "Los geht's mit der Wohnzimmer-Recalbox!",
  "Step 3 : The Hardware": "Schritt 3: Die Hardware",
  "You can now assemble your Recalbox!": "Jetzt musst Du deine Recalbox nur noch zusammenbauen!",
  "Assemble": "Zusammenbau",
  "Step 4: Installation": "Schritt 4: Installation",
  "DIY Step 4": "DIY - Schritt 4: Installation",
  "You hardware is assembled, let's install Recalbox": "Glückwunsch! Deine Hardware ist zusammengebaut. Jetzt geht es an die Installation!",
  "Only a few minutes": "Die Installation geht sehr schnell. Sie dauert nur wenige Minuten.",
  "How to install": "Die Installation von Recalbox ist ganz einfach : \n\n\n- Stecken die microSD in das Laufwerk deines Computers\n- Rufe {{link}} auf und folge den Anweisungen, um Recalbox herunterzuladen und zu installieren.",
  "Kit Recalbox Mini": "Die ideale Retrogaming-Lösung für einen geringen Preis!",
  "Kit Recalbox Mini+": "Erstelle deine eigene Miniatur-Recalbox-Retrogaming-Lösung mit dem SNES30 Pro USB-Controller!",
  "Get the pack!": "Bestelle das Kit!",
  "Get it at kubii": "Der einfachste Weg, eine Recalbox zu bekommen, ist, ein Paket bei unserem Partner kubii.fr zu bestellen",
  "Odroid Go Super": "Der Odroid Go Super ist die große Schwester des Advance. Höhere Leistung, mit besserer Verarbeitung und größerem Bildschirm.",
  "Odroid Go Advance": "Die Odroïd Go Advance ist eine handliche Konsole zum Selberbauen. Sie ist leistungsstark und kompakt.",
  "Compatible Handhelds": "Kompatible Handhelds",
  "Get your recalbox everywhere": "Deine Recalbox immer zur Hand!",
  "Step 3 : Compatible Handhelds": "Schritt 3: Kompatible Handhelds",
  "DIY Step 3 PC": "DIY - Schritt 3: Hardware für Recalbox auf PC",
  "Use the power of your PC to run Recalbox!": "Nutze die Leistung deines PCs, um Recalbox zu betreiben!",
  "You just need a PC!": "Du brauchst nur einen PC...",
  "DIY Step 3 Handheld": "DIY - Schritt 3: Hardware für eine Handheld Recalbox",
  "See PC on the wiki": "Siehe [Kompatible PCs im Wiki] (https://wiki.recalbox.com/en/hardware-compatibility/compatible-pcs) für weitere Informationen",
  "Minimal Requirement": "Minimale **Systemanforderungen**:\n* Ein 64-Bit-Prozessor\n* 8 GB RAM\n* Ein GPU von Intel, Nvidia oder AMD.\n* Eine 10GB Festplatte\n* 8 GB externer Speicher",
  "Recalbox on 64bits": "Recalbox läuft auf den meisten 64-Bit-Computern. Das Beste: Die meisten funktionalen Computer (neu oder alt) sind 64-Bit Computer.",
  "Download Recalbox": "Recalbox herunterladen",
  "Get handhelds at kubii": "Recalbox ist mit den folgenden Handheld-Konsolen kompatibel. Wenn Du bereits eine dieser Konsolen besitzt, kannst Du [weiter zum nächsten Schritt]({{link}}).\nAndernfalls gehe zu unserem Partner kubii.fr, um Dir deine eigene zu besorgen.",
  "Choose your handheld!": "Wählen dein Handheld!",
  "PiBoy DMG": "Baue einen Raspberry Pi 4 in deine Handheld Konsole!",
  "GPi Case": "Recalbox in einem Game Boy!",
  "GPi Case + Raspberry Pi Zero 2": "Die Leistung des Rasbperry Pi Zero 2 in deinem GPi Case",
  "DIY Step 2": "DIY - Schritt 2: Wähle deine Spielerfahrung aus"
}