{
  "What is Recalbox?": "Recalbox ist ***Die ultimative Retrogaming-Konsole***, mit der Du alle Spiele, Konsolen und Computer aus Deiner Kindheit wieder spielen kannst!\n\nMit Recalbox kannst du die Titel, die die Geschichte der Videospiele geprägt haben, mit Leichtigkeit (wieder)entdecken und (erneut) spielen!",
  "How does it work?": "Recalbox kann leicht auf sehr günstigen Nano-Computern wie dem ***Raspberry Pi 4*** oder auf **jedem Computer** (neu oder alt) installiert werden",
  "Is it complicated?": "Ganz und gar nicht! Recalbox ist wahrscheinlich die Plattform und die Gemeinschaft, die sich am meisten darum kümmert, eine sehr einfache Lösung anzubieten, die auch für die größten Anfänger zugänglich ist. Du weißt nicht, wo du anfangen sollst? Folge der Anleitung, [wir helfen Dir in 4 Schritten]({{link}})",
  "Do you have a ready to play retrogaming console?": "Wir bieten bei [Kubii.fr](https://www.kubii.fr/221-recalbox), dem größten europäischen Raspberry Pi Spezialisten, **Fertigbausätze für Recalbox** an!",
  "What can I install Recalbox on?": "Für das beste Spielerlebnis empfehlen wir die Verwendung von Recalbox auf einem **Raspberry Pi 4 2GB**. Du kannst Recalbox aber auch auf folgenden Geräten installieren.\n- Raspberry Pi 400\n- Raspberry Pi Zero 2\n- Raspberry Pi Zero\n- Raspberry Pi 1 (B/B+)\n- Raspberry Pi 2\n- Raspberry Pi 3 (B/B+)\n- Raspberry Pi 4 (beliebige Version)\n- Odroid XU4\n- PC (64bits)\n- Odroid Go Advance\n- Odroid Go Super",
  "How many games are included?": "Das Recalbox-Team ist stolz darauf, unabhängige Spieleentwickler zu **unterstützen**, indem es fast ***150 bisher unveröffentlichte Spiele*** enthält, oft in exklusiver Form!\n\nWir versuchen, jeden Tag so viele kostenlose Spiele wie möglich zu Recalbox hinzuzufügen, damit Du vom ersten Start an Spaß haben kannst!\n\nRecalbox enthält keine urheberrechtlich geschützten Inhalte.\n\nGehe zu [diesem Forumsbeitrag] (https://forum.recalbox.com/topic/52/homebrews-sur-la-recalbox), um deine Homebrews/Kreationen einzureichen!",
  "What are supported games and consoles?": "Recalbox ist eine unglaubliche Plattform, die es sich zur Aufgabe gemacht hat, das Videospielerbe deiner Kindheit zu retten, zu bewahren und weiterzugeben.\n\nBis heute hat Recalbox mehr als hundert Konsolen, Handhelds, Computer- und Spielhallensysteme wieder zum Leben erweckt; von den bekanntesten bis hin zu den exotischsten.\n\nDu kannst Zehntausende von Spielen, von denen einige in Vergessenheit geraten sind, (wieder)entdecken und mit anderen teilen, um sie vor dem Verschwinden zu bewahren!",
  "Recalbox supports more than 100 systems, but I can see only some of them in the inteface, is it normal?": "Ja, um die Benutzung zu vereinfachen, zeigt Recalbox nur Systeme an, die Spiele (ROMS) in ihrem Ordner haben.\n\nDu musst nur Spiele hinzufügen, damit das entsprechende System im Hauptmenü erscheint!\n\n  **Tip**: conversely, you can empty a console's folder to hide it if you're not interested. Useful!",
  "Where can I see the progress of the development of the Recalbox?": "Der einfachste Weg? Im [Blog](/blog) oder indem Du uns auf [Facebook](https://www.facebook.com/recalbox), [Twitter](https://twitter.com/recalbox) und [Instagram](https://www.instagram.com/recalbox/) folgst!\n\nFür diejenigen, die uns bei dem Projekt helfen wollen, gibt es viele Informationen im [Recalbox gitlab](https://gitlab.com/recalbox/recalbox).",
  "How can I participate in the project?": "\n- Durch die Bestellung deiner Hardware unter [kubii.fr](https://www.kubii.fr/221-recalbox)\n- Durch das Melden von Fehlern über [[support@recalbox.com](mailto:support@recalbox.com)\n- Durch die Teilnahme im [Forum](https://forum.recalbox.com)\n- Indem Du einen Merge Request im [Recalbox Gitlab](https://gitlab.com/recalbox/recalbox) vorschlägst",
  "Can I use Recalbox in an acarde cab / bartop?": "Auf jeden Fall! Es gibt sogar spezielle Optionen, die es Dir ermöglichen, die Menüs entsprechend zu ändern oder sie sogar ganz zu deaktivieren.",
  "What type of monitor can I connect Recalbox to?": "Recalbox ist so optimiert, dass es nativ mit allen modernen HDTVs und Computermonitoren funktioniert. Du kannst sogar alte DVI, VGA... Bildschirme mit einem speziellen Adapter anschließen!"
}