{
  "The all in one retrogaming console!": "La consola retrogaming\n\n¡**todo en uno**!",
  "Play again to all your consoles!": "¡Vuelve a jugar a **todas las consolas, máquinas y juegos* de tu infancia!",
  "We help you in four steps": "Te ayudamos a montar tu Recalbox ***en sólo 4 etapas***.",
  "Go to step 1": "Ir a la etapa 1",
  "I already have hardware": "Ya tengo el material!",
  "I want it!": "Quiero una!",
  "Download and install last version": "¡Bájate e instala la última versión de Recalbox en tu aparato!",
  "Download": "Descargar",
  "Recalbox Features": "Copia de seguridad instantánea, vuelta atrás, scraping, overlays, shaders, teclado virtual, búsqueda múltiple. Sería muy largo decir todo lo que hace de Recalbox la mejor solución retrogaming del mundo. ¡Prueba Recalbox y descúbrelo por tí mismo!",
  "The powerful retro console": "La consola retro más potente",
  "Where to begin?": "¿Por dónde empezar con Recalbox?",
  "1 - Create your Recalbox": "1 - Montar su Recalbox",
  "You should start with the first step": "Te recomendamos empezar con la sección ‘Montar su Recalbox’ que te permitirá, en 4 etapas, obtener el material necesario, montarlo y lanzar tu primera partida en Recalbox.",
  "2 - Tutorials": "2 - Tutoriales",
  "Then the tutorials": "Cuando ya tienes tu Recalbox funcionando, la sección ‘Tutoriales’ te permitirá descubrir los menús, las opciones y las configuraciones de tu Recalbox para conocer a la perfección tu consola.",
  "3 - Documentation": "3 - Documentación",
  "Finally documentation": "Para ir aún más allá, puedes consultar la documentación oficial de Recalbox escrita por la comunidad. Y si quieres participar, puedes ofrecer tu contenido.",
  "More than 100 compatible systems": "Más de 100 sistemas compatibles",
  "What do you want to play?": "¿A qué consola quieres jugar?",
  "More than 100 compatible systems details": "¡Miles de juegos de consolas de salón, consolas portátiles, ordenadores, máquinas de juego!",
  "I want to play to...": "Quiero jugar a…",
  "Simple and accessible": "Simple y asequible, lo hacemos todo para proponerte la **mejor experiencia de retrogaming** posible!\n\nEl sistema está pensado para ser muy fácil de usar, incluso **para novatos**. Además, te acompañamos desde la compra del material hasta tu primera partida con Recalbox. ¿Te apuntas?",
  "Recalbox 8 available": "¡**Recalbox 8** y **Recalbox RGB Dual** ahora disponibles!",
  "Read more...": "Leer más...",
  "Recalbox 8.0 BETA is available!": "Recalbox 8.0 BETA está disponible!",
  "It has never been so simple": "Más fácil imposible",
  "All the systems": "Todos los sistemas"
}