{
  "Qu’est-ce que Recalbox ?": "Recalbox c’est ***La Console Retrogaming Ultime*** qui vous permet de rejouer à tous les jeux, consoles et ordinateurs de votre enfance ! \n\n Avec Recalbox, (re)découvrez et (re)jouez aux titres qui ont marqués l’histoire du jeu vidéo, en toute simplicité!",
  "Comment ça marche ?": "Recalbox s’installe très simplement sur des nanos-ordinateurs très bon marché comme le ***Raspberry Pi 4***, ou sur **tout ordinateur** (récent ou de récupération)",
  "Je n’y connais rien, c’est compliqué ?": "Absolument pas ! Proposer une solution ultra-simplifiée, accessible même aux grands débutants est au coeur des préoccupations de la plateforme Recalbox et sa communauté. Vous ne savez pas par où commencer ? Suivez le guide, [on vous accompagne en 4 etapes](/fr/diy/)",
  "Existe-t-il une console rétrogaming Recalbox prête à l’emploi ?": "Nous proposons chez [Kubii.fr](https://www.kubii.fr/221-recalbox), le plus grand spécialiste européen du Raspberry Pi, des **kits Recalbox prêts à monter**!",
  "Quel matériel est compatible ?": "Pour la meilleure expérience de jeu, nous recommandons d’utiliser Recalbox sur un **Raspberry Pi 4 2Go**. Mais vous pouvez aussi utiliser Recalbox sur \n- Raspberry Pi 400\n- Raspberry Pi Zero 2 \n- Raspberry Pi Zero \n- Raspberry Pi 1 (B/B+)\n- Raspberry Pi 2\n- Raspberry Pi 3 (B/B+)\n- Raspberry Pi 4 (peu importe la version)\n- Odroid XU4\n- PC (64bits)\n- Odroïd Go Advance\n- Odroïd Go Super",
  "Recalbox contient combien de jeux ?": "L’équipe de Recalbox est fière de **soutenir les développeurs** de jeux indépendants, en incluant près de ***150 jeux totalement inédits***, souvent en exclusivité totale et pour certains jamais sortis jusqu’alors ! \n\nNous essayons chaque jour d'ajouter un maximum de jeux libres à Recalbox pour que vous puissiez vous amuser dès le premier lancement ! \n\nRecalbox ne contient aucun contenu copyrighté. \n\nRendez-vous sur [ce post du forum](https://forum.recalbox.com/topic/52/homebrews-sur-la-recalbox) pour proposer vos homebrews/créations !",
  "Quels sont les consoles, ordinateurs et jeux supportés ?": "Recalbox est une incroyable plateforme dédiée à la sauvegarde, la préservation et la transmission du patrimoine vidéoludique de votre enfance. \n\nÀ ce jour, Recalbox permet de redonner vie à plus d’une centaine de consoles, consoles portables, ordinosaures et systèmes d’arcade des plus connus aux plus exotiques. \n\nVous pourrez ainsi (re)découvrir et faire découvrir leurs dizaines de milliers de jeux, parfois disparus, afin de les sauver de l’oubli !",
  "La Recalbox supporte une centaine de consoles... mais je n'en vois que quelques-unes, c’est normal ?": "Oui ! Pour simplifier son utilisation, Recalbox n’affiche que les consoles qui disposent de jeux (roms) dans leur dossier. \n\nIl vous suffit juste d’ajouter des jeux pour que la console apparaisse dans le menu général !\n\n  **Astuce** : à l’inverse, il vous pouvez vider le dossier d’une console pour la masquer si elle ne vous intéresse pas. Pratique !",
  "Où puis-je voir l'avancée du développement de la Recalbox?": "Le plus simplement ? En nous suivant sur le [blog](/fr/blog) ou sur [Facebook](https://www.facebook.com/recalbox.fr), [Twitter](https://twitter.com/recalbox) et [Instagram](https://www.instagram.com/recalbox/) ! \n\nPour ceux qui veulent nous porter main forte dans le projet, vous trouverez plein d’infos sur le [gitlab de Recalbox](https://gitlab.com/recalbox/recalbox).",
  "Comment puis-je participer au projet ?": "\n- En commandant votre materiel chez [kubii.fr](https://www.kubii.fr/221-recalbox)\n- En remontant des bugs via l’adresse [support@recalbox.com](mailto:support@recalbox.com)\n- En participant sur le [forum recalbox](https://forum.recalbox.com)\n- En proposant une merge request sur le projet [gitlab de Recalbox](https://gitlab.com/recalbox/recalbox)",
  "Puis-je utiliser Recalbox dans une borne / bartop ?": "Absolument ! Il existe même des options dédiées, qui vous permettent par exemple de modifier les menus accessibles, voire de les désactiver complètement.",
  "Sur quel type d'écran puis-je brancher Recalbox ?": "Recalbox est optimisé pour fonctionner nativement avec toutes les TV HD et écrans d’ordinateurs récents. Vous pouvez même brancher de vieux écrans DVI, VGA… avec un adaptateur dédié !"
}
